<?xml version="1.0" encoding="utf-8"?>
<!-- Generator: Adobe Illustrator 21.1.0, SVG Export Plug-In . SVG Version: 6.00 Build 0)  -->
<svg version="1.1" id="Layer_1" xmlns="http://www.w3.org/2000/svg" xmlns:xlink="http://www.w3.org/1999/xlink" x="0px" y="0px"
	 width="70px" height="50px" viewBox="0 0 70 50" style="enable-background:new 0 0 70 50;" xml:space="preserve">
<style type="text/css">
	.st0{display:none;}
	.st1{display:inline;fill:none;stroke:#DC6C4E;stroke-width:2;stroke-miterlimit:10;}
	.st2{display:inline;fill:#F5FEC6;stroke:#DC6C4E;stroke-width:2;stroke-miterlimit:10;}
	.st3{display:inline;}
	.st4{fill:none;stroke:#DC6C4E;stroke-width:2;stroke-miterlimit:10;}
	.st5{display:inline;fill:#FEDC64;}
	.st6{fill:#F17555;stroke:#91344A;stroke-miterlimit:10;}
	.st7{fill:#FDDB63;}
	.st8{fill:none;stroke:#91344A;stroke-miterlimit:10;}
	.st9{fill:none;stroke:#502642;stroke-width:2;stroke-linecap:round;stroke-linejoin:round;stroke-miterlimit:10;}
	.st10{fill:#EE7353;stroke:#502642;stroke-width:2;stroke-linecap:round;stroke-linejoin:round;stroke-miterlimit:10;}
	.st11{display:inline;fill:#9B3750;}
	.st12{display:inline;fill:none;stroke:#1A1A1A;stroke-width:2;stroke-linecap:round;stroke-linejoin:round;stroke-miterlimit:10;}
</style>
<g class="st0">
	<path class="st1" d="M47.7,18.1c0,0,7.7,0.4,7.9,6.7c0.1,3.4,0.1,3.5,0.1,3.5s-0.4,5.4-12.4,5.6"/>
	<path class="st2" d="M14.3,14.7c0,0-0.8,22,10.5,25L35,39.8c0,0,10,1.3,12.9-25.5"/>
	<g class="st3">
		<ellipse class="st4" cx="31.1" cy="14.2" rx="16.8" ry="4"/>
	</g>
	<ellipse class="st5" cx="30.9" cy="15" rx="14.4" ry="1.9"/>
</g>
<g class="st0">
	<g class="st3">
		<path class="st6" d="M52.2,23.2c0,0,0.5-1.6,1.7-1.2c1.2,0.4,9.6,3.6,9.6,3.6s1,0.4,0.5,1.9c-0.5,1.5-2.5,7.8-7,10.8l-6.6-2.5
			C50.4,35.8,49.3,32.1,52.2,23.2z"/>
		<path class="st7" d="M52.2,23.2c0,0,0.5-1.6,1.7-1.2c1.2,0.4,9.6,3.6,9.6,3.6s1,0.4,0.5,1.9c-0.7,2.2-3.6-0.2-5.6-0.8L54,25.1
			C54,25.1,47.5,35.5,52.2,23.2z"/>
		<path class="st8" d="M52.2,23.2c0,0,0.5-1.6,1.7-1.2c1.2,0.4,9.6,3.6,9.6,3.6s1,0.4,0.5,1.9c-0.5,1.5-2.5,7.8-7,10.8l-6.6-2.5
			C50.4,35.8,49.3,32.1,52.2,23.2z"/>
	</g>
	<g class="st3">
		<path class="st6" d="M6.1,27c0,0-0.7-1.5,0.5-2s9.6-3.6,9.6-3.6s1-0.3,1.6,1.1c0.6,1.4,3.3,7.5,1.9,12.7l-6.6,2.5
			C13.2,37.6,9.9,35.5,6.1,27z"/>
		<path class="st7" d="M6.1,27c0,0-0.7-1.5,0.5-2s9.6-3.6,9.6-3.6s1-0.3,1.6,1.1c0.9,2.2-2.9,2.2-4.7,3.2l-4.4,1.6
			C8.7,27.2,10.8,39.2,6.1,27z"/>
		<path class="st8" d="M6.1,27c0,0-0.7-1.5,0.5-2s9.6-3.6,9.6-3.6s1-0.3,1.6,1.1c0.6,1.4,3.3,7.5,1.9,12.7l-6.6,2.5
			C13.2,37.6,9.9,35.5,6.1,27z"/>
	</g>
	<g class="st3">
		<path class="st6" d="M41.6,18c0,0,0.4-2.2,2-1.8c1.6,0.4,13,3.3,13,3.3s1.4,0.4,0.9,2.4c-0.4,2-2.1,10.5-7.5,15.1l-9-2.3
			C41.2,34.7,39.2,30,41.6,18z"/>
		<path class="st7" d="M41.6,18c0,0,0.4-2.2,2-1.8c1.6,0.4,13,3.3,13,3.3s1.4,0.4,0.9,2.4c-0.6,3-4.7,0.2-7.4-0.2l-5.9-1.6
			C44.3,20.2,37.4,34.6,41.6,18z"/>
		<path class="st8" d="M41.6,18c0,0,0.4-2.2,2-1.8c1.6,0.4,13,3.3,13,3.3s1.4,0.4,0.9,2.4c-0.4,2-2.1,10.5-7.5,15.1l-9-2.3
			C41.2,34.7,39.2,30,41.6,18z"/>
	</g>
	<g class="st3">
		<path class="st6" d="M12.6,22.4c0,0-0.8-2.1,0.8-2.6s12.8-4.1,12.8-4.1s1.4-0.4,2.1,1.5s3.8,10,1.7,16.8l-8.8,2.8
			C21.1,36.8,16.9,33.8,12.6,22.4z"/>
		<path class="st7" d="M12.6,22.4c0,0-0.8-2.1,0.8-2.6s12.8-4.1,12.8-4.1s1.4-0.4,2.1,1.5c1.1,2.9-3.9,2.7-6.4,3.8L16,22.8
			C16,22.8,17.8,38.7,12.6,22.4z"/>
		<path class="st8" d="M12.6,22.4c0,0-0.8-2.1,0.8-2.6s12.8-4.1,12.8-4.1s1.4-0.4,2.1,1.5s3.8,10,1.7,16.8l-8.8,2.8
			C21.1,36.8,16.9,33.8,12.6,22.4z"/>
	</g>
	<g class="st3">
		<path class="st6" d="M23.7,14.7c0,0-0.2-3.1,2.2-3.1s18.8,0.1,18.8,0.1s2,0.1,2.1,2.9c0.1,2.8,0.8,15-5,23.1l-13-0.1
			C28.7,37.6,24.5,31.9,23.7,14.7z"/>
		<path class="st7" d="M23.7,14.7c0,0-0.2-3.1,2.2-3.1s18.8,0.1,18.8,0.1s2,0.1,2.1,2.9c0.2,4.3-6.4,1.9-10.2,2.3L28,16.8
			C28,16.8,23.6,38.8,23.7,14.7z"/>
		<path class="st8" d="M23.7,14.7c0,0-0.2-3.1,2.2-3.1s18.8,0.1,18.8,0.1s2,0.1,2.1,2.9c0.1,2.8,0.8,15-5,23.1l-13-0.1
			C28.7,37.6,24.5,31.9,23.7,14.7z"/>
	</g>
</g>
<g>
	<line class="st9" x1="19" y1="9.1" x2="53.9" y2="43.9"/>
	<polyline class="st9" points="16,11.9 27.9,23.2 33.8,17.5 21.7,6 	"/>
	<polyline class="st10" points="18.7,44 53.9,8.7 54,12 44.8,26.4 39.5,22.8 	"/>
</g>
<g class="st0">
	<path class="st11" d="M20.4,11.5c0,0,14.4-6.7,27.9-0.1c0,0-2.3,9.2-10.2,13.9c0.1,0.1-5.9,0-5.9,0S23.4,19,20.4,11.5z"/>
	<ellipse class="st12" cx="35" cy="9.2" rx="17" ry="4.7"/>
	<path class="st12" d="M18,9.2c0,0,7.3,14.3,14.1,17c0.1,0.1,4.7,0.1,4.7,0.1s11.3-7,15.2-17.2"/>
	<path class="st12" d="M34.6,26.2l0.3,13.4l-10.1,4.6c0,0,12.2,3.3,19.5-0.3l-8.5-4"/>
</g>
</svg>
